[
  {
    "firstname" : "John",
    "lastname" : "lewis",
    "email" : "john12@gmail.com"
   },
  {
    "firstname" : "Peter",
    "lastname" : "Grogory",
    "email" : "peet10@gmail.com"
  },
  {
    "firstname" : "Richard",
    "lastname" : "Hendricks",
    "email" : "rickyh@hotmail.com"
  },
  {
    "firstname" : "Erlich",
    "lastname": "Bachman",
    "email" : "ebachman1@yahoo.com"
  },
  {
    "firstname" : "Jared",
    "lastname" : "Dunn",
    "email" : "jared1212@gmail.com"
  },
  {
    "firstname" : "Neil",
    "lastname" : "Fuhrer",
    "email" : "neilfuhrer@hotmail.com"
  },
  {
    "firstname" : "Dwayne",
    "lastname" : "Johnson",
    "email" : "djohn@hotmail.com"
  },
  {
    "firstname" : "Shawn",
    "lastname" : "Connery",
    "email" : "shawn1991@gmail.com"
  },
  {
    "firstname" : "Eric",
    "lastname" : "Thomas",
    "email" : "et@hotmail.com"
  },
  {
    "firstname" : "Catlyn",
    "lastname" : "Stark",
    "email" : "iamcat@hotmail.com"
  },
  {
    "firstname" : "Tyrion",
    "lastname" : "Lannister",
    "email" : "dwarf@gmail.com"
  },
  {
    "firstname" : "Jammie",
    "lastname" : "Lannister",
    "email" : "jammy@hotmail.com"
  },
  {
    "firstname" : "Henry",
    "lastname" : "Jobs",
    "email" : "henryjobs@hotmail.com"
  },
  {
    "firstname" : "Steve",
    "lastname" : "Strauss",
    "email" : "steve10@rediffmail.com"
  },
  {
    "firstname" : "Micheal",
    "lastname" : "Sheriff",
    "email" : "sheriff@gmail.com"
  },
  {
    "firstname" : "Eddard",
    "lastname" : "Stark",
    "email" : "ned@gmail.com"
  },
  {
    "firstname" : "Robert",
    "lastname" : "Baratheon",
    "email" : "iamking@gmail.com"
  },
  {
    "firstname" : "Sam",
    "lastname" : "Tarly",
    "email" : "maester@gmail.com"
  },
  {
    "firstname" : "Arya",
    "lastname" : "Stark",
    "email" : "arry@rediffmail.com"
  },
  {
    "firstname" : "Les",
    "lastname" : "Brown",
    "email" : "iamles@hotmail.com"
  },
  {
    "firstname" : "John",
    "lastname" : "Snow",
    "email" : "kingjohn@yahoo.com"
  },
  {
    "firstname" : "Les",
    "lastname" : "Brown",
    "email" : "iamles@hotmail.com"
  },
  {
    "firstname" : "Rupert",
    "lastname" : "Grint",
    "email" : "rg1@gmail.com"
  },
  {
    "firstname" : "Harry",
    "lastname" : "Potter",
    "email" : "iamHarry@hotmail.com"
  }

]
